<svg xmlns="http://www.w3.org/2000/svg" xmlns:xlink="http://www.w3.org/1999/xlink" width="71" height="67" viewBox="0 0 71 67">
  <defs>
    <clipPath id="clip-path">
      <rect id="Rectangle_359" data-name="Rectangle 359" width="71" height="67" transform="translate(1215 1180)" fill="#fff"/>
    </clipPath>
    <clipPath id="clip-cropped-icon">
      <rect width="71" height="67"/>
    </clipPath>
  </defs>
  <g id="cropped-icon" clip-path="url(#clip-cropped-icon)">
    <g id="Mask_Group_40" data-name="Mask Group 40" transform="translate(-1215 -1180)" opacity="0.21" clip-path="url(#clip-path)">
      <g id="Group_1436" data-name="Group 1436" transform="matrix(0.914, 0.407, -0.407, 0.914, 1242.71, 1179.505)">
        <g id="Group_1435" data-name="Group 1435" transform="translate(0 75.972) rotate(-90)">
          <ellipse id="Ellipse_108" data-name="Ellipse 108" cx="4.404" cy="4.404" rx="4.404" ry="4.404" transform="translate(56.384 2.735)" fill="#5d2468"/>
          <path id="Path_2259" data-name="Path 2259" d="M2.242,7.3A6.506,6.506,0,0,0,0,8.559,6.52,6.52,0,0,0,1.768,1.774,6.521,6.521,0,0,0,.877,0,21.228,21.228,0,0,1,8.689,8.726,6.52,6.52,0,0,0,2.242,7.3Z" transform="translate(65.191 3.321)" fill="#5d2468"/>
          <path id="Path_2260" data-name="Path 2260" d="M0,1.536a6.492,6.492,0,0,0,2.7-.278A6.5,6.5,0,0,0,4.943,0a6.536,6.536,0,0,0-2.08,4.682A9.3,9.3,0,0,0,0,1.536Z" transform="translate(60.062 12.056)" fill="#5d2468"/>
          <path id="Path_2261" data-name="Path 2261" d="M10.612,40.919a6.489,6.489,0,0,0-2.863.668,9.205,9.205,0,0,0,1.508-5.056A9.258,9.258,0,0,0,0,27.273V12.1A9.258,9.258,0,0,0,9.258,2.843c0-.246-.018-.488-.037-.73a6.524,6.524,0,0,0,7.405,2.541A6.514,6.514,0,0,0,20.946,0a21.305,21.305,0,0,1,.2,2.843,21.105,21.105,0,0,1-8.368,16.844,21.105,21.105,0,0,1,8.368,16.844,21.046,21.046,0,0,1-4.268,12.736,6.515,6.515,0,0,0-6.262-8.348Z" transform="translate(54.83 18.382)" fill="#5d2468"/>
          <ellipse id="Ellipse_109" data-name="Ellipse 109" cx="4.404" cy="4.404" rx="4.404" ry="4.404" transform="translate(66.262 11.44) rotate(13.283)" fill="#5d2468"/>
          <g id="Group_1434" data-name="Group 1434" transform="translate(0 0)">
            <path id="Path_2262" data-name="Path 2262" d="M4.485,0A6.537,6.537,0,0,0,4.28,1.6a6.548,6.548,0,0,0,6.548,6.548,6.511,6.511,0,0,0,2.936-.7,9.239,9.239,0,0,0,7.378,14.817v1.416A25.4,25.4,0,0,0,7.128,28.836,21.124,21.124,0,0,1,4.485,0Z" transform="translate(0 8.13)" fill="#5d2468"/>
            <path id="Path_2263" data-name="Path 2263" d="M11.274,11.89a9.193,9.193,0,0,0-4.793,1.349A6.51,6.51,0,0,0,7.508,9.73,6.548,6.548,0,0,0,.96,3.183,6.565,6.565,0,0,0,0,3.261,21.137,21.137,0,0,1,32.416,21.142c0,.028,0,.056,0,.084H20.522c0-.028,0-.056,0-.084A9.252,9.252,0,0,0,11.274,11.89Z" transform="translate(9.868 0)" fill="#5d2468"/>
          </g>
          <ellipse id="Ellipse_110" data-name="Ellipse 110" cx="4.404" cy="4.404" rx="4.404" ry="4.404" transform="translate(62.126 60.569) rotate(13.282)" fill="#5d2468"/>
          <ellipse id="Ellipse_111" data-name="Ellipse 111" cx="4.404" cy="4.404" rx="4.404" ry="4.404" transform="translate(10.827 3.502) rotate(45)" fill="#5d2468"/>
          <path id="Path_2264" data-name="Path 2264" d="M8.314,4.241A21.029,21.029,0,0,1,21.009,0c.045,0,.089,0,.133,0v11.78A9.258,9.258,0,1,0,30.4,21.041H45.572a9.244,9.244,0,0,0,14.093,7.884,6.509,6.509,0,0,0,7.421,9.338,21.129,21.129,0,0,1-29.1-4.447A21.139,21.139,0,1,1,8.314,4.241Z" transform="translate(0 33.872)" fill="#5d2468"/>
          <path id="Path_2265" data-name="Path 2265" d="M0,8.355l.01.013A21.128,21.128,0,0,1,21.774.582,6.514,6.514,0,0,0,18.636,12.06,9.247,9.247,0,0,0,7.6,21.142H0Z" transform="translate(37.976 0.084)" fill="#5d2468"/>
        </g>
      </g>
    </g>
  </g>
</svg>
