<svg xmlns="http://www.w3.org/2000/svg" xmlns:xlink="http://www.w3.org/1999/xlink" width="60" height="60" viewBox="0 0 60 60">
  <defs>
    <clipPath id="clip-play_icon">
      <rect width="60" height="60"/>
    </clipPath>
  </defs>
  <g id="play_icon" data-name="play icon" clip-path="url(#clip-play_icon)">
    <g id="Group_1312" data-name="Group 1312" transform="translate(-288.527 -573.106)">
      <path id="Path_585" data-name="Path 585" d="M-2637.963,5221.192l17.249-12.573-17.249-13.066Z" transform="translate(2947.492 -4605.447)" fill="#fff" stroke="#fff" stroke-linecap="round" stroke-width="2"/>
    </g>
  </g>
</svg>
